{
    "locations": [
        {
            "name": "Rixos The Palm Dubai",
            "position": [25.1212, 55.1535],
        },
        {
            "name": "Shangri-La Hotel",
            "position": [25.2084, 55.2719]
        },
        {
            "name": "Grand Hyatt",
            "position": [25.2285, 55.3273]
        }
    ]
}
